{
    "dataList": [
        {
            "_name": "Milling CNC",
            "_type": 3,
            "_size": {
                "x": 6.0,
                "y": 4.0
            },
            "_description": "Robot machine used to cut metals into complex forms with precision and in multiple axis. The process is slow and if the milling bit is worn out or unbalanced each part could leave the process with errors and problems",
            "_price": 100,
            "_hours": 50,
            "_health": 200,
            "_machineParts": [0,4,8]
        },
        {
            "_name": "Blade Cut",
            "_type": 1,
            "_size": {
                "x": 3.0,
                "y": 6.0
            },
            "_description": "Basic cutting machine used to resize metals or make panels for nozzles and tanks",
            "_price": 25,
            "_hours": 10,
            "_health": 200,
            "_machineParts": [0,23,24]
        },
        {
            "_name": "Electronic Discharger",
            "_type": 6,
            "_size": {
                "x": 4.0,
                "y": 4.0
            },
            "_description": "Automated chemical process where material is welded into the part with high precision, used primarly on nozzles and fuel tanks for better thermodynamics",
            "_price": 600,
            "_hours": 25,
            "_health": 200,
            "_machineParts": [0]
        },
        {
            "_name": "Friction Stir Welder",
            "_type": 8,
            "_size": {
                "x": 10.0,
                "y": 20.0
            },
            "_description": "Big volume machine that uses a welding process to join metal rings to make the body of the rocket itself",
            "_price": 1500,
            "_hours": 150,
            "_health": 200,
            "_machineParts": [0]
        },
        {
            "_name": "Oven",
            "_type": 5,
            "_size": {
                "x": 8.0,
                "y": 16.0
            },
            "_description": "Big volume oven where carbon fiber parts are cooked with chemicals to finish the process and strengthen the fabric",
            "_price": 1000,
            "_hours": 50,
            "_health": 200,
            "_machineParts": [0]
        },
        {
            "_name": "Spinning Former",
            "_type": 2,
            "_size": {
                "x": 8.0,
                "y": 3.0
            },
            "_description": "Automated machine for parts that need to bend into a specifict angle using a mold",
            "_price": 250,
            "_hours": 20,
            "_health": 200,
            "_machineParts": [0,13,19]
        },
        {
            "_name": "Tube Bending",
            "_type": 9,
            "_size": {
                "x": 4.0,
                "y": 6.0
            },
            "_description": "Automated machine that created different tubes depending on assigned variables, the tubes are used in the engines and the rocket itself",
            "_price": 150,
            "_hours": 10,
            "_health": 200,
            "_machineParts": [0,25,26]
        },
        {
            "_name": "Welding Robot",
            "_type": 7,
            "_size": {
                "x": 6.0,
                "y": 6.0
            },
            "_description": "Robot machine that welds together different parts in multiple axis and with high precision",
            "_price": 50,
            "_hours": 15,
            "_health": 200,
            "_machineParts": [0]
        },
        {
            "_name": "Compositer",
            "_type": 4,
            "_size": {
                "x": 10.0,
                "y": 20.0
            },
            "_description": "Big volume machine that forms parts using carbon fiber fabric, generally fairings, legs and COPVs. After finishing the carbon fiber parts need to finish its process on the oven",
            "_price": 800,
            "_hours": 60,
            "_health": 200,
            "_machineParts": [0]
        },
        {
            "_name": "Dispenser",
            "_type": 10,
            "_size": {
                "x": 8.0,
                "y": 2.0
            },
            "_description": "Generates resources, remove parts",
            "_price": 0,
            "_hours": 0,
            "_health": 200,
            "_machineParts": [0]
        }
    ]
}